{
  "swagger": "2.0",
  "info": {
    "title": "company/company.proto",
    "version": "version not set"
  },
  "tags": [
    {
      "name": "CompanyService"
    }
  ],
  "consumes": [
    "application/json"
  ],
  "produces": [
    "application/json"
  ],
  "paths": {
    "/v1/companies": {
      "get": {
        "operationId": "CompanyService_ListCompanies",
        "responses": {
          "200": {
            "description": "A successful response.",
            "schema": {
              "$ref": "#/definitions/companyListCompaniesResponse"
            }
          },
          "default": {
            "description": "An unexpected error response.",
            "schema": {
              "$ref": "#/definitions/rpcStatus"
            }
          }
        },
        "parameters": [
          {
            "name": "filter.userId",
            "in": "query",
            "required": false,
            "type": "string",
            "format": "int64"
          },
          {
            "name": "pagination.limit",
            "in": "query",
            "required": false,
            "type": "string",
            "format": "int64"
          },
          {
            "name": "pagination.lastId",
            "in": "query",
            "required": false,
            "type": "string",
            "format": "int64"
          }
        ],
        "tags": [
          "CompanyService"
        ]
      },
      "post": {
        "operationId": "CompanyService_CreateCompany",
        "responses": {
          "200": {
            "description": "A successful response.",
            "schema": {
              "$ref": "#/definitions/companyCreateCompanyResponse"
            }
          },
          "default": {
            "description": "An unexpected error response.",
            "schema": {
              "$ref": "#/definitions/rpcStatus"
            }
          }
        },
        "parameters": [
          {
            "name": "body",
            "in": "body",
            "required": true,
            "schema": {
              "$ref": "#/definitions/companyCreateCompanyRequest"
            }
          }
        ],
        "tags": [
          "CompanyService"
        ]
      }
    },
    "/v1/companies/{id}": {
      "get": {
        "operationId": "CompanyService_GetCompany",
        "responses": {
          "200": {
            "description": "A successful response.",
            "schema": {
              "$ref": "#/definitions/companyGetCompanyResponse"
            }
          },
          "default": {
            "description": "An unexpected error response.",
            "schema": {
              "$ref": "#/definitions/rpcStatus"
            }
          }
        },
        "parameters": [
          {
            "name": "id",
            "in": "path",
            "required": true,
            "type": "string",
            "format": "int64"
          }
        ],
        "tags": [
          "CompanyService"
        ]
      },
      "patch": {
        "operationId": "CompanyService_UpdateCompany",
        "responses": {
          "200": {
            "description": "A successful response.",
            "schema": {
              "$ref": "#/definitions/companyUpdateCompanyResponse"
            }
          },
          "default": {
            "description": "An unexpected error response.",
            "schema": {
              "$ref": "#/definitions/rpcStatus"
            }
          }
        },
        "parameters": [
          {
            "name": "id",
            "in": "path",
            "required": true,
            "type": "string",
            "format": "int64"
          },
          {
            "name": "body",
            "in": "body",
            "required": true,
            "schema": {
              "type": "object",
              "properties": {
                "name": {
                  "type": "string"
                },
                "description": {
                  "type": "string"
                },
                "photos": {
                  "type": "array",
                  "items": {
                    "$ref": "#/definitions/companyPhoto"
                  }
                }
              }
            }
          }
        ],
        "tags": [
          "CompanyService"
        ]
      }
    }
  },
  "definitions": {
    "ListCompaniesRequestFilter": {
      "type": "object",
      "properties": {
        "userId": {
          "type": "string",
          "format": "int64"
        }
      }
    },
    "companyCompany": {
      "type": "object",
      "properties": {
        "id": {
          "type": "string",
          "format": "int64"
        },
        "name": {
          "type": "string"
        },
        "description": {
          "type": "string"
        },
        "photos": {
          "type": "array",
          "items": {
            "$ref": "#/definitions/companyPhoto"
          }
        },
        "userId": {
          "type": "string",
          "format": "int64"
        },
        "createdAt": {
          "type": "string",
          "format": "date-time"
        },
        "updatedAt": {
          "type": "string",
          "format": "date-time"
        },
        "deletedAt": {
          "type": "string",
          "format": "date-time"
        }
      }
    },
    "companyCreateCompanyRequest": {
      "type": "object",
      "properties": {
        "name": {
          "type": "string"
        },
        "description": {
          "type": "string"
        },
        "photos": {
          "type": "array",
          "items": {
            "$ref": "#/definitions/companyPhoto"
          }
        },
        "userId": {
          "type": "string",
          "format": "int64"
        }
      }
    },
    "companyCreateCompanyResponse": {
      "type": "object",
      "properties": {
        "id": {
          "type": "string",
          "format": "int64"
        }
      }
    },
    "companyGetCompanyResponse": {
      "type": "object",
      "properties": {
        "company": {
          "$ref": "#/definitions/companyCompany"
        }
      }
    },
    "companyListCompaniesResponse": {
      "type": "object",
      "properties": {
        "companies": {
          "type": "array",
          "items": {
            "$ref": "#/definitions/companyCompany"
          }
        }
      }
    },
    "companyPagination": {
      "type": "object",
      "properties": {
        "limit": {
          "type": "string",
          "format": "int64"
        },
        "lastId": {
          "type": "string",
          "format": "int64"
        }
      }
    },
    "companyPhoto": {
      "type": "object",
      "properties": {
        "uuid": {
          "type": "string"
        },
        "url": {
          "type": "string"
        },
        "isMain": {
          "type": "boolean"
        }
      }
    },
    "companyUpdateCompanyResponse": {
      "type": "object"
    },
    "protobufAny": {
      "type": "object",
      "properties": {
        "@type": {
          "type": "string"
        }
      },
      "additionalProperties": {}
    },
    "rpcStatus": {
      "type": "object",
      "properties": {
        "code": {
          "type": "integer",
          "format": "int32"
        },
        "message": {
          "type": "string"
        },
        "details": {
          "type": "array",
          "items": {
            "$ref": "#/definitions/protobufAny"
          }
        }
      }
    }
  }
}
